…
top20_ci_table
```

```
## # A tibble: 124 × 4
##    Job_Title                    Employees Postings Competitiveness_Index
##    <chr>                            <int>    <int>                 <dbl>
##  1 Program Coordinator                  2       10              5       
##  2 Project Director                     4        8              2       
##  3 Project Coordinator                 41        6              0.146   
##  4 Project Manager                    203       28              0.138   
##  5 Office Manager                      19        2              0.105   
##  6 Legal Coordinator                   70        4              0.0571  
##  7 It Project Specialist              626        4              0.00639 
##  8 Construction Project Manager      1136        2              0.00176 
##  9 Community Coordinator            12968        8              0.000617
## 10 *Assist Coordinating Manager         7        0              0       
## # ℹ 114 more rows
```
…
